{
  "required": true,
  "minVersion": "0.8",
  "package": "io.gitlab.jfronny.quickmath.mixin",
  "compatibilityLevel": "JAVA_17",
  "plugin": "io.gitlab.jfronny.quickmath.MixinPlugin",
  "mixins": [
    "MathHelperMixin",
    "MathHelperMixin2",
    "MixinPerlinNoiseSampler",
    "MixinSimplexNoiseSampler"
  ],
  "client": [
  ],
  "injectors": {
    "defaultRequire": 1
  }
}
